<!DOCTYPE svg PUBLIC "-//W3C//DTD SVG 1.1//EN" "http://www.w3.org/Graphics/SVG/1.1/DTD/svg11.dtd">
<!-- Uploaded to: SVG Repo, www.svgrepo.com, Transformed by: SVG Repo Mixer Tools -->
<svg width="800px" height="800px" viewBox="-0.5 0 15 15" xmlns="http://www.w3.org/2000/svg" fill="#000000">
<g id="SVGRepo_bgCarrier" stroke-width="0"/>
<g id="SVGRepo_tracerCarrier" stroke-linecap="round" stroke-linejoin="round"/>
<g id="SVGRepo_iconCarrier"> <path fill="#ff0083" fill-rule="evenodd" d="M107,154.006845 C107,153.45078 107.449949,153 108.006845,153 L119.993155,153 C120.54922,153 121,153.449949 121,154.006845 L121,165.993155 C121,166.54922 120.550051,167 119.993155,167 L108.006845,167 C107.45078,167 107,166.550051 107,165.993155 L107,154.006845 Z M108,157 L120,157 L120,166 L108,166 L108,157 Z M116.5,163.5 L116.5,159.5 L115.757485,159.5 L114.5,160.765367 L114.98503,161.275112 L115.649701,160.597451 L115.649701,163.5 L116.5,163.5 Z M112.5,163.5 C113.412548,163.5 114,163.029753 114,162.362119 C114,161.781567 113.498099,161.473875 113.110266,161.433237 C113.532319,161.357765 113.942966,161.038462 113.942966,160.550798 C113.942966,159.906386 113.395437,159.5 112.505703,159.5 C111.838403,159.5 111.359316,159.761248 111.051331,160.115385 L111.456274,160.632075 C111.724335,160.370827 112.055133,160.231495 112.425856,160.231495 C112.819392,160.231495 113.13308,160.382438 113.13308,160.690131 C113.13308,160.974601 112.847909,161.102322 112.425856,161.102322 C112.28327,161.102322 112.020913,161.102322 111.952471,161.096517 L111.952471,161.839623 C112.009506,161.833817 112.26616,161.828012 112.425856,161.828012 C112.956274,161.828012 113.190114,161.967344 113.190114,162.275036 C113.190114,162.565312 112.93346,162.768505 112.471483,162.768505 C112.10076,162.768505 111.684411,162.605951 111.427757,162.327286 L111,162.87881 C111.279468,163.227141 111.804183,163.5 112.5,163.5 Z M110,152.5 C110,152.223858 110.214035,152 110.504684,152 L111.495316,152 C111.774045,152 112,152.231934 112,152.5 L112,153 L110,153 L110,152.5 Z M116,152.5 C116,152.223858 116.214035,152 116.504684,152 L117.495316,152 C117.774045,152 118,152.231934 118,152.5 L118,153 L116,153 L116,152.5 Z" transform="translate(-107 -152)"/> </g>
</svg>