<svg width="150" height="150" viewBox="0 0 150 150" fill="none" xmlns="http://www.w3.org/2000/svg">
<path fill-rule="evenodd" clip-rule="evenodd" d="M32.9771 130H128.66L129.297 48.0984C129.318 47.3931 128.948 46.7359 128.341 46.4L120.915 42.4224C120.382 42.1446 119.792 42 119.194 42H34.4658L32.9771 130Z" fill="#ECECEC"/>
<path fill-rule="evenodd" clip-rule="evenodd" d="M32.9771 130H128.66L129.297 48.0984C129.318 47.3931 128.948 46.7359 128.341 46.4L120.915 42.4224C120.382 42.1446 119.792 42 119.194 42H34.4658L32.9771 130Z" stroke="#4A4A4A" stroke-width="2" stroke-linecap="round" stroke-linejoin="round"/>
<path fill-rule="evenodd" clip-rule="evenodd" d="M119.469 41.9999H27.573C26.937 41.993 26.3245 42.2452 25.8708 42.701C25.417 43.1567 25.1595 43.7785 25.1549 44.4288L23.7517 127.272C23.7384 127.981 24.0042 128.666 24.4899 129.173C24.9755 129.679 25.6401 129.965 26.3338 129.965H118.333" fill="white"/>
<path d="M119.469 41.9999H27.573C26.937 41.993 26.3245 42.2452 25.8708 42.701C25.417 43.1567 25.1595 43.7785 25.1549 44.4288L23.7517 127.272C23.7384 127.981 24.0042 128.666 24.4899 129.173C24.9755 129.679 25.6401 129.965 26.3338 129.965H117.077" stroke="#4A4A4A" stroke-width="2" stroke-linecap="round" stroke-linejoin="round"/>
<path d="M118.626 129.965L118.798 119.572" stroke="#4A4A4A" stroke-width="2" stroke-linecap="round" stroke-linejoin="round"/>
<path d="M119.09 102.368L120.046 45.5992" stroke="#4A4A4A" stroke-width="2" stroke-linecap="round" stroke-linejoin="round"/>
<path d="M118.936 111.678L118.97 109.865" stroke="#4A4A4A" stroke-width="2" stroke-linecap="round" stroke-linejoin="round"/>
<path fill-rule="evenodd" clip-rule="evenodd" d="M33.0115 119.123H109.685L111.845 50.2456H33.2955L33.0115 119.123Z" fill="#F9F9F9"/>
<path fill-rule="evenodd" clip-rule="evenodd" d="M70.9265 120.188L32.0735 120.065L32.5382 92.6175C50.8044 89.2207 63.7583 88.6927 71.3998 91.0335" fill="#FF0083"/>
<path opacity="0.18" fill-rule="evenodd" clip-rule="evenodd" d="M32.8308 118.639C45.7388 116.785 53.3602 115.025 55.6951 113.359C55.6521 113.438 56.1512 113.28 56.1082 113.359C55.48 114.582 54.5506 116.65 53.3459 119.519C44.5168 120.041 38.0686 120.208 34.0011 120.021C31.8928 120.038 31.497 119.563 32.8308 118.639Z" fill="#AE035F"/>
<path opacity="0.18" d="M32.9513 104.26L31.1872 98.8039C35.4656 97.4022 39.833 96.3026 44.2587 95.5127L47.4082 100.291C42.5158 101.316 37.6881 102.642 32.9513 104.26Z" fill="#AE035F"/>
<path opacity="0.18" d="M32.3834 114.723L31.6519 109.029C44.0436 107.366 54.6969 104.48 64.1197 101.84L65.1179 101.567L66.5722 107.111L65.574 107.384C55.9791 110.041 45.1364 113.016 32.3834 114.723Z" fill="#AE035F"/>
<path fill-rule="evenodd" clip-rule="evenodd" d="M71.3998 91.0335C77.0707 92.7935 82.658 90.4285 89.0235 90.9355C95.389 91.4425 95.0042 97.6951 98.5409 92.3095C98.5409 92.3095 108.007 90.3559 111.569 94.1487L110.933 120.32L70.9265 120.197" fill="#FF0083"/>
<path opacity="0.213797" fill-rule="evenodd" clip-rule="evenodd" d="M86.4618 97.8733C88.2908 99.6377 88.2908 101.767 86.4618 104.26C85.6034 106.633 85.2519 107.959 85.4071 108.237C89.9684 111.881 92.55 115.773 93.1519 119.912C86.483 119.91 80.5632 115.725 75.3927 107.357L86.4618 97.8733Z" fill="#AE035F"/>
<path fill-rule="evenodd" clip-rule="evenodd" d="M82.5867 85.5335C80.8657 83.6767 80.8657 78.7927 80.5301 76.9359C80.1944 75.0791 83.1633 66.8159 83.1633 66.8159L90.5036 68.7607L98.4205 67.1591L98.584 71.7967C98.584 71.7967 99.9006 74.5599 101.123 74.5599C102.344 74.5599 102.112 71.8583 104.418 70.4239C106.725 68.9895 107.964 70.4239 108.377 74.2167C108.79 78.0095 103.928 78.6167 103.928 78.6167L103.377 91.5175C103.498 93.8407 102.697 95.3103 101.424 97.1231C99.7543 99.5078 98.3947 99.9742 94.9439 100.256C92.9967 100.448 91.1446 99.3562 90.3315 97.5366C89.2042 96.7183 89.1267 94.6415 89.1698 93.7967L89.2816 91.2447C86.9554 89.46 84.7208 87.5538 82.5867 85.5335Z" fill="white"/>
<path fill-rule="evenodd" clip-rule="evenodd" d="M32.2801 81.7143C34.0872 86.2023 37.4863 86.4399 39.3881 85.6039L38.846 77.8335C36.8575 77.3959 35.4017 75.6512 35.292 73.5743C35.1027 69.9839 37.1077 67.3087 40.197 70.6527C41.8062 74.9559 43.1658 73.0111 46.651 67.6431C51.7023 71.4975 57.5023 68.2151 57.5023 68.2151C59.5943 69.6809 62.1625 70.2554 64.6619 69.8167C67.8889 68.7343 67.5963 64.7568 65.6945 62.9176C67.8803 58.0072 60.9186 53.4312 47.5029 55.5872C44.5169 53.6864 33.7344 53.968 32.5297 64.6248" fill="#E0E0E0"/>
<path fill-rule="evenodd" clip-rule="evenodd" d="M62.674 70.4679L57.5109 68.2152C57.5109 68.2152 49.3272 70.0895 48.045 68.9543C46.7628 67.8192 45.0762 66.42 44.7062 69.5879C44.3361 72.7559 40.3347 72.5887 40.3347 72.5887C40.3347 72.5887 39.3881 66.6752 37.2712 69.2007C34.1647 72.9143 38.8718 77.3231 38.8718 77.3231L39.3795 88.0767V91.7903C39.302 93.7351 40.5068 95.6799 41.2382 97.4399C42.572 99.1999 44.8352 100.326 48.3548 99.6751C53.6385 98.7071 53.3803 94.7823 53.3803 94.7823L53.8837 90.4285" fill="white"/>
<path d="M39.7323 69.4208C39.7925 71.3303 39.9818 72.1487 40.3433 72.5887C40.823 73.2062 41.6458 73.422 42.3569 73.1167C44.078 72.2895 43.8973 69.2184 45.4376 68.048C45.9643 67.7121 46.632 67.7121 47.1587 68.048C52.0723 71.2687 57.485 68.224 57.485 68.224C59.4523 69.5589 61.8632 70.0254 64.1713 69.5176C66.7013 68.7696 68.0179 64.5896 66.1248 62.7504C68.2933 57.84 58.1476 51.68 46.5563 56.08C43.9231 54.7688 36.2299 55.3672 33.4762 59.6" stroke="#4A4A4A" stroke-width="2" stroke-linecap="round" stroke-linejoin="round"/>
<path d="M38.7169 91.6055C37.1937 91.7639 34.0872 92.5559 32.6415 94.7823" stroke="#AE035F" stroke-width="2" stroke-linecap="round" stroke-linejoin="round"/>
<path d="M39.7775 69.1832C37.8155 68.6728 35.8707 70.3888 36.0944 73.2223C36.2951 74.8433 37.4065 76.1933 38.9342 76.6719L38.7513 91.1919C40.24 97.9943 43.751 100.15 47.5631 99.4991C53.2857 98.5311 53.3803 91.2711 53.3803 91.2711V89.7399" stroke="#4A4A4A" stroke-width="2" stroke-linecap="round" stroke-linejoin="round"/>
<path d="M36.9787 91.9123C38.1815 91.5274 38.7883 91.3585 38.7991 91.4057C40.3142 98.0395 43.7912 100.143 47.5631 99.4991C53.2857 98.5311 53.3803 91.2711 53.3803 91.2711V89.7399" stroke="#AE035F" stroke-width="2" stroke-linecap="round" stroke-linejoin="round"/>
<path d="M32.9427 83.8263C33.8463 85.3047 36.5139 86.0087 38.1747 85.7183" stroke="#4A4A4A" stroke-width="2" stroke-linecap="round" stroke-linejoin="round"/>
<path fill-rule="evenodd" clip-rule="evenodd" d="M46.78 89.5199C46.78 89.5199 55.153 93.9199 60.9788 87.2055C65.2814 82.0135 64.7651 76.4079 63.328 71.7263" fill="white"/>
<path d="M48.8109 89.5639C51.6678 90.3383 57.0806 90.5759 60.8583 86.4047C64.8145 82.0758 63.3725 77.3973 62.9942 73.1079" stroke="#4A4A4A" stroke-width="2" stroke-linecap="round" stroke-linejoin="round"/>
<path d="M59.1889 74.2079L59.2405 74.9823" stroke="#4A4A4A" stroke-width="1.4" stroke-linecap="round" stroke-linejoin="round"/>
<path d="M47.4513 74.9559L47.5115 75.6951" stroke="#4A4A4A" stroke-width="1.4" stroke-linecap="round" stroke-linejoin="round"/>
<path fill-rule="evenodd" clip-rule="evenodd" d="M55.9533 75.6159C55.9533 75.6159 54.9551 77.6223 51.8141 76.1791Z" fill="white"/>
<path d="M55.7381 76.6719C55.7381 76.6719 54.2408 78.5023 51.685 76.9447" stroke="#4A4A4A" stroke-width="1.4" stroke-linecap="round" stroke-linejoin="round"/>
<path d="M103.764 91.4823C103.764 91.4823 108.928 92.5999 110.984 95.1695" stroke="#AE035F" stroke-width="2" stroke-linecap="round" stroke-linejoin="round"/>
<path fill-rule="evenodd" clip-rule="evenodd" d="M81.3303 70.4679C79.5662 67.432 80.2288 63.428 80.2288 63.428C80.2288 63.428 80.9775 54.628 94.9353 54.7336C108.575 54.8392 110.089 62.1872 110.089 62.1872C110.744 62.4854 111.37 62.8479 111.957 63.2696C112.972 63.9824 111.481 73.6634 112.103 79.4087C109.777 82.2337 106.769 84.3876 103.377 85.6567L103.988 78.1063C105.706 78.351 107.383 77.4385 108.144 75.8447C109.452 73.0991 107.017 67.784 103.515 71.6295C101.148 75.7391 98.5409 74.9911 98.4118 72.4567C98.3 70.1423 98.7561 66.0504 97.1985 66.7456C95.6409 67.4408 88.7567 70.0543 83.3353 66.6752" fill="#E0E0E0"/>
<path d="M110.855 81.0719C108.829 83.2824 106.244 84.8754 103.386 85.6743L103.997 78.1239C105.715 78.3686 107.392 77.4561 108.153 75.8623C109.427 72.7471 105.941 67.5904 103.523 71.4623C101.484 75.8623 98.8937 75.2991 98.7647 72.7735C98.6528 70.4591 99.2207 67.036 97.6632 67.74C96.1056 68.444 86.5451 70.1599 82.2683 66.068" stroke="#4A4A4A" stroke-width="2" stroke-linecap="round" stroke-linejoin="round"/>
<path d="M111.208 61.9979C100.555 49.3612 80.2202 54.144 79.1188 64.2376C78.9545 65.7693 79.248 67.3118 79.9544 68.664" stroke="#4A4A4A" stroke-width="2" stroke-linecap="round" stroke-linejoin="round"/>
<path d="M103.42 85.6743L103.171 88.8247C102.912 96.3927 98.7733 99.9126 95.1935 99.5254C91.7514 99.4198 88.3093 96.5951 89.5312 90.3823L89.0235 88.8071" stroke="#4A4A4A" stroke-width="2" stroke-linecap="round" stroke-linejoin="round"/>
<path d="M102.895 91.5041C101.874 97.2211 98.3202 99.8636 95.1935 99.5255C92.1418 99.4318 89.0901 97.2009 89.2886 92.3665C89.3055 91.9541 89.3055 91.5098 89.2886 91.0335" stroke="#AE035F" stroke-width="2" stroke-linecap="round" stroke-linejoin="round"/>
<path fill-rule="evenodd" clip-rule="evenodd" d="M94.5481 90.6815C94.5481 90.6815 87.6638 93.2247 83.1977 87.5047C79.7556 83.1047 78.5852 77.8247 81.4766 72.8351C82.282 71.4182 82.995 69.9483 83.6107 68.4352" fill="white"/>
<path d="M96.0454 89.7575C96.0454 89.7575 89.4279 92.2655 84.0754 87.5839C79.9277 83.9583 78.9122 78.2295 81.0378 73.0023C81.9585 70.7319 82.7588 69.2624 83.2493 67.5816" stroke="#4A4A4A" stroke-width="2" stroke-linecap="round" stroke-linejoin="round"/>
<path d="M84.3336 73.2927L84.1443 74.1023" stroke="#4A4A4A" stroke-width="1.4" stroke-linecap="round" stroke-linejoin="round"/>
<path d="M94.9611 75.3607L94.8321 76.0735" stroke="#4A4A4A" stroke-width="1.4" stroke-linecap="round" stroke-linejoin="round"/>
<path fill-rule="evenodd" clip-rule="evenodd" d="M86.8808 75.7039C86.8808 75.7039 87.4143 77.5167 90.3229 76.6895Z" fill="white"/>
<path d="M87.0529 76.1087C87.0529 76.1087 88.249 77.6223 90.6499 76.6103" stroke="#4A4A4A" stroke-width="1.4" stroke-linecap="round" stroke-linejoin="round"/>
<path d="M44.689 120.065H110.606L111.69 50.0784H33.1492L32.065 120.065H39.6032" stroke="#4A4A4A" stroke-width="2" stroke-linecap="round" stroke-linejoin="round"/>
<path d="M88.7223 119.114C87.6466 115.92 85.2802 111.581 81.184 110.314C77.7246 109.215 74.0622 108.956 70.4876 109.557H72.5357C68.9612 108.956 65.2988 109.215 61.8393 110.314C57.7776 111.555 54.6883 115.841 53.6126 119.035" fill="#FF0083"/>
<path d="M54.6956 116.992C55.9378 113.78 58.5672 111.314 61.8393 110.341C65.2988 109.242 68.9612 108.982 72.5357 109.584H70.4877C74.0622 108.982 77.7246 109.242 81.184 110.341C84.2863 111.263 86.8108 113.528 88.1231 116.498" stroke="#AE035F" stroke-width="2" stroke-linecap="round" stroke-linejoin="round"/>
<path opacity="0.212574" fill-rule="evenodd" clip-rule="evenodd" d="M74.0933 115.304C74.0933 115.304 77.2686 111.784 80.7194 114.081C82.8035 115.501 84.4201 117.531 85.3576 119.906C85.3576 119.906 89.8668 120.179 88.5416 116.861C87.2164 113.544 79.79 109.821 79.79 109.821L75.8918 111.634L74.0933 115.304Z" fill="#AE035F"/>
<path fill-rule="evenodd" clip-rule="evenodd" d="M59.8171 102.896C56.504 102.685 54.5764 96.9119 58.9565 95.2223L71.9247 91.5527L85.0392 95.0727C89.3419 96.7623 87.4315 102.922 84.3766 102.755" fill="white"/>
<path d="M59.8171 102.843C56.2114 103.037 54.7916 96.9823 59.1975 95.2927L72.4669 92.8991L84.6864 95.3455C88.989 96.7975 87.3454 102.737 84.1615 102.676" stroke="#4A4A4A" stroke-width="2" stroke-linecap="round" stroke-linejoin="round"/>
<path fill-rule="evenodd" clip-rule="evenodd" d="M75.8918 111.625C75.6681 114.081 74.8506 117.504 72.0194 117.53C67.8114 117.53 67.536 113.377 67.536 113.377L67.6909 111.705L70.3328 108.237" fill="white"/>
<path fill-rule="evenodd" clip-rule="evenodd" d="M59.8773 102.905C60.5332 109.022 65.5975 113.646 71.615 113.623C77.8017 113.595 83.0032 108.867 83.757 102.588" fill="white"/>
<path d="M66.9681 112.136C67.1144 113.676 67.8286 116.941 70.9007 117.011C73.9728 117.081 75.0226 114.01 75.3496 112.285" stroke="#AE035F" stroke-width="2" stroke-linecap="round" stroke-linejoin="round"/>
<path d="M59.8773 102.905C60.3506 107.305 63.1473 110.068 67.0111 111.705M75.0141 112.145C79.6437 110.763 83.1719 107.595 83.757 102.57" stroke="#4A4A4A" stroke-width="2" stroke-linecap="round" stroke-linejoin="round"/>
<path fill-rule="evenodd" clip-rule="evenodd" d="M83.2149 90.2503C85.3146 92.9607 84.652 98.0823 82.3544 98.6278C80.0568 99.1734 79.6093 95.2311 79.6093 95.2311C79.6093 95.2311 75.5906 96.7359 72.4755 94.9847C69.7132 96.4631 64.6361 95.5303 64.6361 95.5303C64.6361 95.5303 62.915 99.4814 60.7465 98.3198C59.8859 97.959 56.375 85.7975 67.9233 87.4343C70.961 82.8055 77.6989 84.9351 78.2496 87.4343C80.5387 88.1647 81.8208 88.0239 83.2751 89.9071" fill="#E6E6E6"/>
<path fill-rule="evenodd" clip-rule="evenodd" d="M82.69 98.6279C80.3149 99.1823 79.833 95.2311 79.833 95.2311C79.833 95.2311 75.6336 97.5103 71.8301 95.4511C68.388 97.5103 64.3779 95.5303 64.3779 95.5303C64.3779 95.5303 62.5622 99.4815 60.3592 98.3199C59.4385 97.9591 57.7776 86.8799 68.104 87.7599C70.2811 83.6239 76.3048 85.4103 77.3805 87.8919C85.4953 88.4111 85.0651 98.0823 82.69 98.6279Z" stroke="#4A4A4A" stroke-width="2" stroke-linecap="round" stroke-linejoin="round"/>
<path d="M77.0363 99.8775L77.0277 100.546" stroke="#4A4A4A" stroke-width="1.4" stroke-linecap="round" stroke-linejoin="round"/>
<path d="M66.185 99.8775L66.1678 100.546" stroke="#4A4A4A" stroke-width="1.4" stroke-linecap="round" stroke-linejoin="round"/>
<path fill-rule="evenodd" clip-rule="evenodd" d="M73.2069 101.197C72.1849 102.17 70.6187 102.227 69.5325 101.329Z" fill="white"/>
<path d="M73.2069 101.197C72.1849 102.17 70.6187 102.227 69.5325 101.329" stroke="#4A4A4A" stroke-width="1.4" stroke-linecap="round" stroke-linejoin="round"/>
<path opacity="0.05" fill-rule="evenodd" clip-rule="evenodd" d="M33.1923 65.0384C33.1923 65.0384 40.1626 56.4144 47.8213 60.8408C53.0877 58.5352 59.4298 59.2304 60.9013 63.5424C61.7619 66.4904 59.1803 67.3528 56.134 66.068C52.623 68.5232 45.0848 65.32 45.8076 68.18C46.9349 69.5879 53.0619 70.0807 56.3664 68.9368C61.5295 71.2511 64.1111 69.6319 65.3589 68.0568C66.6067 66.4816 66.9853 64.3344 66.6153 63.8064C66.2452 63.2784 67.8716 56.4144 57.7174 55.1912C47.5631 53.968 47.3136 57.0568 47.3136 57.0568C47.3136 57.0568 38.5878 53.8184 33.0718 59.776C32.9742 61.5306 33.0145 63.2904 33.1923 65.0384Z" fill="#4A4A4A"/>
<path opacity="0.05" fill-rule="evenodd" clip-rule="evenodd" d="M44.8094 69.7815C44.8094 69.7815 47.7954 74.4719 55.6005 72.4215C56.6973 72.8595 57.8178 73.2327 58.9565 73.5391C58.9565 73.5391 60.5657 80.2007 57.442 84.4775C55.4595 87.0782 52.6168 88.8494 49.4477 89.4583C49.4477 89.4583 48.4925 91.2887 49.7747 91.8959C51.0569 92.5031 52.4939 97.7655 52.4939 97.7655L54.1634 89.9687C54.1634 89.9687 62.8547 87.7775 63.044 81.1687C63.2255 77.7008 62.883 74.2251 62.0286 70.8639C62.0286 70.8639 57.726 70.7231 56.3491 68.9367C54.9551 70.0631 49.5337 70.8639 45.7732 68.84C44.6717 69.2799 44.8094 69.7815 44.8094 69.7815Z" fill="#4A4A4A"/>
<path opacity="0.05" fill-rule="evenodd" clip-rule="evenodd" d="M60.8497 91.9575C60.8497 91.9575 61.082 94.8791 63.5259 92.0367C66.0387 92.3447 68.9043 93.2071 71.0039 91.5615C74.2826 92.4415 78.0259 91.9575 78.8262 91.3327C80.9947 92.1071 82.449 92.7319 82.449 89.9687C83.671 91.2095 83.8603 93.7087 83.8603 93.7087C83.8603 93.7087 83.8603 97.0702 83.2149 97.299C82.5695 97.5278 81.4164 98.707 81.227 97.1054C81.0087 96.0041 80.4398 95.0077 79.6092 94.2719L76.7867 95.5831L71.6235 94.2191L67.8458 95.8999L63.9132 94.5271L62.3986 97.343L60.1096 97.6862L59.3868 93.2071L60.7206 92.2303" fill="#4A4A4A"/>
<path opacity="0.05" fill-rule="evenodd" clip-rule="evenodd" d="M62.3987 97.3431L65.1782 96.7007C65.1782 96.7007 69.0333 97.8271 71.5375 97.1407C73.5868 97.6726 75.7252 97.7387 77.8021 97.3343C78.4292 98.2124 79.3117 98.8654 80.3235 99.1998C80.3235 99.1998 79.463 108 72.9574 110.877C72.9332 112.604 72.9964 114.331 73.1467 116.052L75.0312 113.588C75.0312 113.588 74.971 111.722 75.3496 111.625C75.7283 111.529 82.0101 108.809 83.6538 102.702L86.9754 100.335C86.9754 100.335 88.2318 95.2135 86.1149 94.3687C83.998 93.5239 83.9894 95.8031 83.9894 95.8031L82.6469 97.6687C82.6469 97.6687 80.6677 97.0439 80.4698 95.8559C80.2719 94.6679 79.7986 94.6767 79.7986 94.6767C77.8772 95.0583 75.9207 95.2236 73.9642 95.1695L71.8645 94.4919L68.5601 95.0199L64.6446 94.5799L62.3987 97.3431Z" fill="#4A4A4A"/>
<path opacity="0.05" fill-rule="evenodd" clip-rule="evenodd" d="M97.0264 69.1128C97.0264 69.1128 93.3261 72.0431 86.3816 71.8055C83.8861 76.6807 84.6606 82.3655 85.6932 83.9583C86.7259 85.5511 90.6843 87.6983 96.424 87.2759C99.0573 89.3967 94.4362 89.9159 94.4362 89.9159L92.8614 93.0399V99.2879C92.8614 99.2879 89.7721 96.5599 90.1422 90.6023C88.0683 89.5199 83.146 88.3583 82.1909 84.3367C81.2357 80.3151 80.6247 76.4871 82.0101 73.1343C82.7725 71.3014 83.4361 69.4271 83.998 67.52C83.998 67.52 91.476 70.4856 97.0264 69.1128Z" fill="#4A4A4A"/>
<path opacity="0.05" fill-rule="evenodd" clip-rule="evenodd" d="M88.8083 56.2736C88.8083 56.2736 82.7846 62.108 85.4437 64.5544C88.1027 67.0008 92.5689 67.7576 97.6374 66.1912C99.978 66.4816 98.954 69.5703 98.954 69.5703L96.2175 68.8136C96.2175 68.8136 86.4935 69.3943 84.6434 68.4L83.387 69.4471L82.7072 71.4359C82.7072 71.4359 78.5422 67.124 80.1944 63.1552C81.3415 60.6722 83.2978 58.6748 85.7276 57.5056L88.8083 56.2736Z" fill="#4A4A4A"/>
<path d="M139.837 130H11" stroke="#4A4A4A" stroke-width="2" stroke-linecap="round" stroke-linejoin="round"/>
</svg>
