<!DOCTYPE svg PUBLIC "-//W3C//DTD SVG 1.1//EN" "http://www.w3.org/Graphics/SVG/1.1/DTD/svg11.dtd">
<!-- Uploaded to: SVG Repo, www.svgrepo.com, Transformed by: SVG Repo Mixer Tools -->
<svg width="800px" height="800px" viewBox="0 0 512 512" xmlns="http://www.w3.org/2000/svg" fill="#ff0083">
<g id="SVGRepo_bgCarrier" stroke-width="0"/>
<g id="SVGRepo_tracerCarrier" stroke-linecap="round" stroke-linejoin="round"/>
<g id="SVGRepo_iconCarrier"> <defs> <style>.fil0{fill:#ff0083}</style> </defs> <g id="Layer_x0020_1"> <path d="M16 0h208c8.8 0 16 7.2 16 16v208c0 8.8-7.2 16-16 16H16c-8.8 0-16-7.2-16-16V16C0 7.2 7.2 0 16 0zm32 48v144h144V48H48zM288 0h208c8.8 0 16 7.2 16 16v208c0 8.8-7.2 16-16 16H288c-8.8 0-16-7.2-16-16V16c0-8.8 7.2-16 16-16zM16 272h208c8.8 0 16 7.2 16 16v208c0 8.8-7.2 16-16 16H16c-8.8 0-16-7.2-16-16V288c0-8.8 7.2-16 16-16zm32 48v144h144V320H48zM288 272h208c8.8 0 16 7.2 16 16v208c0 8.8-7.2 16-16 16H288c-8.8 0-16-7.2-16-16V288c0-8.8 7.2-16 16-16zm32 48v144h144V320H320z" class="fil0"/> </g> </g>
</svg>