<!DOCTYPE svg PUBLIC "-//W3C//DTD SVG 1.1//EN" "http://www.w3.org/Graphics/SVG/1.1/DTD/svg11.dtd">
<!-- Uploaded to: SVG Repo, www.svgrepo.com, Transformed by: SVG Repo Mixer Tools -->
<svg width="800px" height="800px" viewBox="0 0 24 24" fill="none" xmlns="http://www.w3.org/2000/svg">
<g id="SVGRepo_bgCarrier" stroke-width="0"/>
<g id="SVGRepo_tracerCarrier" stroke-linecap="round" stroke-linejoin="round"/>
<g id="SVGRepo_iconCarrier"> <g clip-path="url(#clip0_429_11101)"> <path d="M12 17C13.6569 17 15 15.6009 15 13.875V10.125C15 8.39911 13.6569 7 12 7C10.3431 7 9 8.39911 9 10.125V13.875C9 15.6009 10.3431 17 12 17Z" stroke="rgb(255, 0, 131)" stroke-width="2.5" stroke-linejoin="round"/> <circle cx="12" cy="12" r="9" stroke="rgb(255, 0, 131)" stroke-width="2.5" stroke-linecap="round" stroke-linejoin="round"/> </g> <defs> <clipPath id="clip0_429_11101"> <rect width="24" height="24" fill="white"/> </clipPath> </defs> </g>
</svg>